Exploring Streamflow Across the Colorado River Basin – ESS 523c
…
lees_yearly

# A tibble: 24 × 3
   period     year below_days
   <chr>     <dbl>      <int>
 1 2000-2010  2000        115
 2 2000-2010  2001         28
 3 2000-2010  2002         92
 4 2000-2010  2003         88
 5 2000-2010  2004         79
 6 2000-2010  2005         80
 7 2000-2010  2006          0
 8 2000-2010  2007          0
 9 2000-2010  2008          0
10 2000-2010  2009          7
# ℹ 14 more rows
…
Check that worked

basin_flow %>%
  select(Date, month, water_year) %>%
  filter(Date >= as.Date("2022-09-25"),
         Date <= as.Date("2022-10-05"))

# A tibble: 66 × 3
   Date       month water_year
   <date>     <dbl>      <dbl>
 1 2022-09-25     9       2022
 2 2022-09-26     9       2022
 3 2022-09-27     9       2022
 4 2022-09-28     9       2022
 5 2022-09-29     9       2022
 6 2022-09-30     9       2022
 7 2022-10-01    10       2023
 8 2022-10-02    10       2023
 9 2022-10-03    10       2023
10 2022-10-04    10       2023
# ℹ 56 more rows
…
[1] 0

flow_center <- annual_geo %>%
  group_by(water_year) %>%
  summarize(
    weighted_lat = sum(dec_lat_va * total_annual_discharge, na.rm = TRUE) / 
      sum(total_annual_discharge, na.rm = TRUE),
    weighted_lon = sum(dec_long_va * total_annual_discharge, na.rm = TRUE) / 
      sum(total_annual_discharge, na.rm = TRUE),
    .groups = "drop"
  )

flow_center

# A tibble: 45 × 3
   water_year weighted_lat weighted_lon
        <dbl>        <dbl>        <dbl>
 1       1980         36.6        -112.
 2       1981         36.4        -112.
 3       1982         36.7        -112.
 4       1983         36.6        -112.
 5       1984         36.5        -112.
 6       1985         36.5        -112.
 7       1986         36.6        -112.
 8       1987         36.6        -112.
 9       1988         36.5        -112.
10       1989         36.5        -112.
# ℹ 35 more rows
…
