Lab 5: Machine Learning in Hydrology – ESS 523c
…
camels_folds <- vfold_cv(
  camels_train,
  v = 10,
  strata = aridity
)

camels_block <- spatial_block_cv(
  camels_train_sf,
  v = 10
)

print(camels_block, n = 3)

#  10-fold spatial block cross-validation 
# A tibble: 10 × 2
  splits           id    
  <list>           <chr> 
1 <split [440/63]> Fold01
2 <split [459/44]> Fold02
3 <split [438/65]> Fold03
# ℹ 7 more rows
…
collect_metrics(rf_tuned)

# A tibble: 60 × 8
    mtry min_n .metric .estimator  mean     n std_err .config         
   <int> <int> <chr>   <chr>      <dbl> <int>   <dbl> <chr>           
 1     1     9 mae     standard   0.330    10  0.0338 pre0_mod01_post0
 2     1     9 rmse    standard   0.478    10  0.0494 pre0_mod01_post0
 3     1     9 rsq     standard   0.858    10  0.0200 pre0_mod01_post0
 4     1    15 mae     standard   0.342    10  0.0341 pre0_mod02_post0
 5     1    15 rmse    standard   0.495    10  0.0489 pre0_mod02_post0
 6     1    15 rsq     standard   0.854    10  0.0210 pre0_mod02_post0
 7     2     4 mae     standard   0.269    10  0.0324 pre0_mod03_post0
 8     2     4 rmse    standard   0.401    10  0.0454 pre0_mod03_post0
 9     2     4 rsq     standard   0.883    10  0.0156 pre0_mod03_post0
10     2    21 mae     standard   0.289    10  0.0316 pre0_mod04_post0
# ℹ 50 more rows
…
Report Final Test-Set Performance

collect_metrics(rf_last)

# A tibble: 2 × 4
  .metric .estimator .estimate .config        
  <chr>   <chr>          <dbl> <chr>          
1 rmse    standard       0.325 pre0_mod0_post0
2 rsq     standard       0.932 pre0_mod0_post0

rf_preds <- collect_predictions(rf_last)

rf_preds

# A tibble: 168 × 5
   .pred id               logQmean  .row .config        
   <dbl> <chr>               <dbl> <int> <chr>          
 1 0.659 train/test split    0.530     1 pre0_mod0_post0
 2 0.676 train/test split    0.776     2 pre0_mod0_post0
 3 0.634 train/test split    0.599     3 pre0_mod0_post0
 4 0.610 train/test split    0.620    20 pre0_mod0_post0
 5 0.743 train/test split    0.694    25 pre0_mod0_post0
 6 0.762 train/test split    0.746    28 pre0_mod0_post0
 7 0.742 train/test split    0.593    35 pre0_mod0_post0
 8 0.603 train/test split    0.707    39 pre0_mod0_post0
 9 0.651 train/test split    0.727    41 pre0_mod0_post0
10 0.434 train/test split    0.565    42 pre0_mod0_post0
# ℹ 158 more rows
…
